(module MF_Connectors-PTH_2.54MM_01X36 (layer F.Cu) (tedit 200000)
  (descr "DESCRIPTION: PACKAGE FOR 2.54MM PITCH HEADER 36 POSITION. BASED ON 4UCON 00834.")
  (tags "DESCRIPTION: PACKAGE FOR 2.54MM PITCH HEADER 36 POSITION. BASED ON 4UCON 00834.")
  (attr virtual)
  (fp_text reference REF** (at -43.15968 -2.0066) (layer F.SilkS)
    (effects (font (size 1.016 1.016) (thickness 0.1524)))
  )
  (fp_text value VAL** (at -43.15968 -3.5306) (layer F.SilkS)
    (effects (font (size 1.016 1.016) (thickness 0.1524)))
  )
  (fp_line (start -45.69968 -1.24968) (end 45.69968 -1.24968) (layer F.SilkS) (width 0.127))
  (fp_line (start 45.69968 -1.24968) (end 45.69968 1.24968) (layer F.SilkS) (width 0.127))
  (fp_line (start 45.69968 1.24968) (end -45.69968 1.24968) (layer F.SilkS) (width 0.127))
  (fp_line (start -45.69968 1.24968) (end -45.69968 -1.24968) (layer F.SilkS) (width 0.127))
  (fp_line (start -46.355 1.905) (end -45.72 1.905) (layer F.SilkS) (width 0.127))
  (fp_line (start -45.72 1.905) (end -45.085 1.27) (layer F.SilkS) (width 0.127))
  (fp_line (start -45.085 1.27) (end -45.72 0.635) (layer F.SilkS) (width 0.127))
  (fp_line (start -45.72 0.635) (end -46.355 1.27) (layer F.SilkS) (width 0.127))
  (fp_line (start -46.355 1.27) (end -46.355 1.905) (layer F.SilkS) (width 0.127))
  (pad P$1 thru_hole circle (at -44.45 0) (size 1.50622 1.50622) (drill 0.99822) (layers F&B.Cu F.Paste F.SilkS F.Mask))
  (pad P$2 thru_hole circle (at -41.91 0) (size 1.50622 1.50622) (drill 0.99822) (layers F&B.Cu F.Paste F.SilkS F.Mask))
  (pad P$3 thru_hole circle (at -39.37 0) (size 1.50622 1.50622) (drill 0.99822) (layers F&B.Cu F.Paste F.SilkS F.Mask))
  (pad P$4 thru_hole circle (at -36.83 0) (size 1.50622 1.50622) (drill 0.99822) (layers F&B.Cu F.Paste F.SilkS F.Mask))
  (pad P$5 thru_hole circle (at -34.29 0) (size 1.50622 1.50622) (drill 0.99822) (layers F&B.Cu F.Paste F.SilkS F.Mask))
  (pad P$6 thru_hole circle (at -31.75 0) (size 1.50622 1.50622) (drill 0.99822) (layers F&B.Cu F.Paste F.SilkS F.Mask))
  (pad P$7 thru_hole circle (at -29.21 0) (size 1.50622 1.50622) (drill 0.99822) (layers F&B.Cu F.Paste F.SilkS F.Mask))
  (pad P$8 thru_hole circle (at -26.67 0) (size 1.50622 1.50622) (drill 0.99822) (layers F&B.Cu F.Paste F.SilkS F.Mask))
  (pad P$9 thru_hole circle (at -24.13 0) (size 1.50622 1.50622) (drill 0.99822) (layers F&B.Cu F.Paste F.SilkS F.Mask))
  (pad P$10 thru_hole circle (at -21.59 0) (size 1.50622 1.50622) (drill 0.99822) (layers F&B.Cu F.Paste F.SilkS F.Mask))
  (pad P$11 thru_hole circle (at -19.05 0) (size 1.50622 1.50622) (drill 0.99822) (layers F&B.Cu F.Paste F.SilkS F.Mask))
  (pad P$12 thru_hole circle (at -16.51 0) (size 1.50622 1.50622) (drill 0.99822) (layers F&B.Cu F.Paste F.SilkS F.Mask))
  (pad P$13 thru_hole circle (at -13.97 0) (size 1.50622 1.50622) (drill 0.99822) (layers F&B.Cu F.Paste F.SilkS F.Mask))
  (pad P$14 thru_hole circle (at -11.43 0) (size 1.50622 1.50622) (drill 0.99822) (layers F&B.Cu F.Paste F.SilkS F.Mask))
  (pad P$15 thru_hole circle (at -8.89 0) (size 1.50622 1.50622) (drill 0.99822) (layers F&B.Cu F.Paste F.SilkS F.Mask))
  (pad P$16 thru_hole circle (at -6.35 0) (size 1.50622 1.50622) (drill 0.99822) (layers F&B.Cu F.Paste F.SilkS F.Mask))
  (pad P$17 thru_hole circle (at -3.81 0) (size 1.50622 1.50622) (drill 0.99822) (layers F&B.Cu F.Paste F.SilkS F.Mask))
  (pad P$18 thru_hole circle (at -1.27 0) (size 1.50622 1.50622) (drill 0.99822) (layers F&B.Cu F.Paste F.SilkS F.Mask))
  (pad P$19 thru_hole circle (at 1.27 0) (size 1.50622 1.50622) (drill 0.99822) (layers F&B.Cu F.Paste F.SilkS F.Mask))
  (pad P$20 thru_hole circle (at 3.81 0) (size 1.50622 1.50622) (drill 0.99822) (layers F&B.Cu F.Paste F.SilkS F.Mask))
  (pad P$21 thru_hole circle (at 6.35 0) (size 1.50622 1.50622) (drill 0.99822) (layers F&B.Cu F.Paste F.SilkS F.Mask))
  (pad P$22 thru_hole circle (at 8.89 0) (size 1.50622 1.50622) (drill 0.99822) (layers F&B.Cu F.Paste F.SilkS F.Mask))
  (pad P$23 thru_hole circle (at 11.43 0) (size 1.50622 1.50622) (drill 0.99822) (layers F&B.Cu F.Paste F.SilkS F.Mask))
  (pad P$24 thru_hole circle (at 13.97 0) (size 1.50622 1.50622) (drill 0.99822) (layers F&B.Cu F.Paste F.SilkS F.Mask))
  (pad P$25 thru_hole circle (at 16.51 0) (size 1.50622 1.50622) (drill 0.99822) (layers F&B.Cu F.Paste F.SilkS F.Mask))
  (pad P$26 thru_hole circle (at 19.05 0) (size 1.50622 1.50622) (drill 0.99822) (layers F&B.Cu F.Paste F.SilkS F.Mask))
  (pad P$27 thru_hole circle (at 21.59 0) (size 1.50622 1.50622) (drill 0.99822) (layers F&B.Cu F.Paste F.SilkS F.Mask))
  (pad P$28 thru_hole circle (at 24.13 0) (size 1.50622 1.50622) (drill 0.99822) (layers F&B.Cu F.Paste F.SilkS F.Mask))
  (pad P$29 thru_hole circle (at 26.67 0) (size 1.50622 1.50622) (drill 0.99822) (layers F&B.Cu F.Paste F.SilkS F.Mask))
  (pad P$30 thru_hole circle (at 29.21 0) (size 1.50622 1.50622) (drill 0.99822) (layers F&B.Cu F.Paste F.SilkS F.Mask))
  (pad P$31 thru_hole circle (at 31.75 0) (size 1.50622 1.50622) (drill 0.99822) (layers F&B.Cu F.Paste F.SilkS F.Mask))
  (pad P$32 thru_hole circle (at 34.29 0) (size 1.50622 1.50622) (drill 0.99822) (layers F&B.Cu F.Paste F.SilkS F.Mask))
  (pad P$33 thru_hole circle (at 36.83 0) (size 1.50622 1.50622) (drill 0.99822) (layers F&B.Cu F.Paste F.SilkS F.Mask))
  (pad P$34 thru_hole circle (at 39.37 0) (size 1.50622 1.50622) (drill 0.99822) (layers F&B.Cu F.Paste F.SilkS F.Mask))
  (pad P$35 thru_hole circle (at 41.91 0) (size 1.50622 1.50622) (drill 0.99822) (layers F&B.Cu F.Paste F.SilkS F.Mask))
  (pad P$36 thru_hole circle (at 44.45 0) (size 1.50622 1.50622) (drill 0.99822) (layers F&B.Cu F.Paste F.SilkS F.Mask))
)
