(module MF_Connectors-TC2030-IDC-FP (layer F.Cu) (tedit 57ACF064)
  (descr "DESCRIPTION: PACKAGE FOR TAG CONNECT TC2030-FP STYLE")
  (tags "DESCRIPTION: PACKAGE FOR TAG CONNECT TC2030-FP STYLE")
  (attr smd)
  (fp_text reference REF** (at -6.223 -2.54 90) (layer F.SilkS)
    (effects (font (size 1.016 1.016) (thickness 0.1524)))
  )
  (fp_text value VAL** (at -7.747 -2.54 90) (layer F.SilkS)
    (effects (font (size 1.016 1.016) (thickness 0.1524)))
  )
  (fp_line (start 3.683 3.048) (end -3.683 3.048) (layer F.SilkS) (width 0.127))
  (fp_line (start -4.953 1.778) (end -4.953 -1.778) (layer F.SilkS) (width 0.127))
  (fp_line (start -3.683 -3.048) (end 3.683 -3.048) (layer F.SilkS) (width 0.127))
  (fp_line (start 4.953 -1.778) (end 4.953 1.778) (layer F.SilkS) (width 0.127))
  (fp_arc (start -3.683 1.778) (end -3.683 3.048) (angle 90) (layer F.SilkS) (width 0.127))
  (fp_arc (start -3.683 -1.778) (end -4.953 -1.778) (angle 90) (layer F.SilkS) (width 0.127))
  (fp_arc (start 3.683 -1.778) (end 3.683 -3.048) (angle 90) (layer F.SilkS) (width 0.127))
  (fp_arc (start 3.683 1.778) (end 4.953 1.778) (angle 90) (layer F.SilkS) (width 0.127))
  (pad P$1 smd circle (at -1.27 0.635) (size 0.7874 0.7874) (layers F.Cu F.Paste F.Mask))
  (pad P$2 smd circle (at -1.27 -0.635) (size 0.7874 0.7874) (layers F.Cu F.Paste F.Mask))
  (pad P$3 smd circle (at 0 0.635) (size 0.7874 0.7874) (layers F.Cu F.Paste F.Mask))
  (pad P$4 smd circle (at 0 -0.635) (size 0.7874 0.7874) (layers F.Cu F.Paste F.Mask))
  (pad P$5 smd circle (at 1.27 0.635) (size 0.7874 0.7874) (layers F.Cu F.Paste F.Mask))
  (pad P$6 smd circle (at 1.27 -0.635) (size 0.7874 0.7874) (layers F.Cu F.Paste F.Mask))
  (pad 7 thru_hole circle (at -2.54 -2.54) (size 2.375 2.375) (drill 2.375) (layers *.Cu *.Mask)
    (solder_mask_margin 0.127) (clearance 0.127))
  (pad 7 thru_hole circle (at 0.635 -2.54) (size 2.375 2.375) (drill 2.375) (layers *.Cu *.Mask)
    (solder_mask_margin 0.127) (clearance 0.127))
  (pad 7 thru_hole circle (at 0.635 2.54) (size 2.375 2.375) (drill 2.375) (layers *.Cu *.Mask)
    (solder_mask_margin 0.127) (clearance 0.127))
  (pad 7 thru_hole circle (at -2.54 2.54) (size 2.375 2.375) (drill 2.375) (layers *.Cu *.Mask)
    (solder_mask_margin 0.127) (clearance 0.127))
  (pad 7 thru_hole circle (at -2.54 0) (size 0.9906 0.9906) (drill 0.9906) (layers *.Cu *.Mask)
    (solder_mask_margin 0.127) (clearance 0.127))
  (pad 7 thru_hole circle (at 2.54 -1.016) (size 0.9906 0.9906) (drill 0.9906) (layers *.Cu *.Mask)
    (solder_mask_margin 0.127) (clearance 0.127))
  (pad 7 thru_hole circle (at 2.54 1.016) (size 0.9906 0.9906) (drill 0.9906) (layers *.Cu *.Mask)
    (solder_mask_margin 0.127) (clearance 0.127))
)
