(module MF_Connectors-PTH_2.54MM_01X22 (layer F.Cu) (tedit 200000)
  (descr "DESCRIPTION: PACKAGE FOR 2.54MM PITCH HEADER 22 POSITION. BASED ON 4UCON 00834.")
  (tags "DESCRIPTION: PACKAGE FOR 2.54MM PITCH HEADER 22 POSITION. BASED ON 4UCON 00834.")
  (attr virtual)
  (fp_text reference REF** (at -25.37968 -2.0066) (layer F.SilkS)
    (effects (font (size 1.016 1.016) (thickness 0.1524)))
  )
  (fp_text value VAL** (at -25.37968 -3.5306) (layer F.SilkS)
    (effects (font (size 1.016 1.016) (thickness 0.1524)))
  )
  (fp_line (start -27.91968 -1.24968) (end 27.91968 -1.24968) (layer F.SilkS) (width 0.127))
  (fp_line (start 27.91968 -1.24968) (end 27.91968 1.24968) (layer F.SilkS) (width 0.127))
  (fp_line (start 27.91968 1.24968) (end -27.91968 1.24968) (layer F.SilkS) (width 0.127))
  (fp_line (start -27.91968 1.24968) (end -27.91968 -1.24968) (layer F.SilkS) (width 0.127))
  (fp_line (start -28.575 1.905) (end -27.94 1.905) (layer F.SilkS) (width 0.127))
  (fp_line (start -27.94 1.905) (end -27.305 1.27) (layer F.SilkS) (width 0.127))
  (fp_line (start -27.305 1.27) (end -27.94 0.635) (layer F.SilkS) (width 0.127))
  (fp_line (start -27.94 0.635) (end -28.575 1.27) (layer F.SilkS) (width 0.127))
  (fp_line (start -28.575 1.27) (end -28.575 1.905) (layer F.SilkS) (width 0.127))
  (pad P$1 thru_hole circle (at -26.67 0) (size 1.50622 1.50622) (drill 0.99822) (layers F&B.Cu F.Paste F.SilkS F.Mask))
  (pad P$2 thru_hole circle (at -24.13 0) (size 1.50622 1.50622) (drill 0.99822) (layers F&B.Cu F.Paste F.SilkS F.Mask))
  (pad P$3 thru_hole circle (at -21.59 0) (size 1.50622 1.50622) (drill 0.99822) (layers F&B.Cu F.Paste F.SilkS F.Mask))
  (pad P$4 thru_hole circle (at -19.05 0) (size 1.50622 1.50622) (drill 0.99822) (layers F&B.Cu F.Paste F.SilkS F.Mask))
  (pad P$5 thru_hole circle (at -16.51 0) (size 1.50622 1.50622) (drill 0.99822) (layers F&B.Cu F.Paste F.SilkS F.Mask))
  (pad P$6 thru_hole circle (at -13.97 0) (size 1.50622 1.50622) (drill 0.99822) (layers F&B.Cu F.Paste F.SilkS F.Mask))
  (pad P$7 thru_hole circle (at -11.43 0) (size 1.50622 1.50622) (drill 0.99822) (layers F&B.Cu F.Paste F.SilkS F.Mask))
  (pad P$8 thru_hole circle (at -8.89 0) (size 1.50622 1.50622) (drill 0.99822) (layers F&B.Cu F.Paste F.SilkS F.Mask))
  (pad P$9 thru_hole circle (at -6.35 0) (size 1.50622 1.50622) (drill 0.99822) (layers F&B.Cu F.Paste F.SilkS F.Mask))
  (pad P$10 thru_hole circle (at -3.81 0) (size 1.50622 1.50622) (drill 0.99822) (layers F&B.Cu F.Paste F.SilkS F.Mask))
  (pad P$11 thru_hole circle (at -1.27 0) (size 1.50622 1.50622) (drill 0.99822) (layers F&B.Cu F.Paste F.SilkS F.Mask))
  (pad P$12 thru_hole circle (at 1.27 0) (size 1.50622 1.50622) (drill 0.99822) (layers F&B.Cu F.Paste F.SilkS F.Mask))
  (pad P$13 thru_hole circle (at 3.81 0) (size 1.50622 1.50622) (drill 0.99822) (layers F&B.Cu F.Paste F.SilkS F.Mask))
  (pad P$14 thru_hole circle (at 6.35 0) (size 1.50622 1.50622) (drill 0.99822) (layers F&B.Cu F.Paste F.SilkS F.Mask))
  (pad P$15 thru_hole circle (at 8.89 0) (size 1.50622 1.50622) (drill 0.99822) (layers F&B.Cu F.Paste F.SilkS F.Mask))
  (pad P$16 thru_hole circle (at 11.43 0) (size 1.50622 1.50622) (drill 0.99822) (layers F&B.Cu F.Paste F.SilkS F.Mask))
  (pad P$17 thru_hole circle (at 13.97 0) (size 1.50622 1.50622) (drill 0.99822) (layers F&B.Cu F.Paste F.SilkS F.Mask))
  (pad P$18 thru_hole circle (at 16.51 0) (size 1.50622 1.50622) (drill 0.99822) (layers F&B.Cu F.Paste F.SilkS F.Mask))
  (pad P$19 thru_hole circle (at 19.05 0) (size 1.50622 1.50622) (drill 0.99822) (layers F&B.Cu F.Paste F.SilkS F.Mask))
  (pad P$20 thru_hole circle (at 21.59 0) (size 1.50622 1.50622) (drill 0.99822) (layers F&B.Cu F.Paste F.SilkS F.Mask))
  (pad P$21 thru_hole circle (at 24.13 0) (size 1.50622 1.50622) (drill 0.99822) (layers F&B.Cu F.Paste F.SilkS F.Mask))
  (pad P$22 thru_hole circle (at 26.67 0) (size 1.50622 1.50622) (drill 0.99822) (layers F&B.Cu F.Paste F.SilkS F.Mask))
)
