(module MF_Connectors-PTH_2.54MM_01X17 (layer F.Cu) (tedit 200000)
  (descr "DESCRIPTION: PACKAGE FOR 2.54MM PITCH HEADER 17 POSITION. BASED ON 4UCON 00834.")
  (tags "DESCRIPTION: PACKAGE FOR 2.54MM PITCH HEADER 17 POSITION. BASED ON 4UCON 00834.")
  (attr virtual)
  (fp_text reference REF** (at -19.02968 -2.0066) (layer F.SilkS)
    (effects (font (size 1.016 1.016) (thickness 0.1524)))
  )
  (fp_text value VAL** (at -19.02968 -3.5306) (layer F.SilkS)
    (effects (font (size 1.016 1.016) (thickness 0.1524)))
  )
  (fp_line (start -21.56968 -1.24968) (end 21.56968 -1.24968) (layer F.SilkS) (width 0.127))
  (fp_line (start 21.56968 -1.24968) (end 21.56968 1.24968) (layer F.SilkS) (width 0.127))
  (fp_line (start 21.56968 1.24968) (end -21.56968 1.24968) (layer F.SilkS) (width 0.127))
  (fp_line (start -21.56968 1.24968) (end -21.56968 -1.24968) (layer F.SilkS) (width 0.127))
  (fp_line (start -22.225 1.905) (end -21.59 1.905) (layer F.SilkS) (width 0.127))
  (fp_line (start -21.59 1.905) (end -20.955 1.27) (layer F.SilkS) (width 0.127))
  (fp_line (start -20.955 1.27) (end -21.59 0.635) (layer F.SilkS) (width 0.127))
  (fp_line (start -21.59 0.635) (end -22.225 1.27) (layer F.SilkS) (width 0.127))
  (fp_line (start -22.225 1.27) (end -22.225 1.905) (layer F.SilkS) (width 0.127))
  (pad P$1 thru_hole circle (at -20.32 0) (size 1.50622 1.50622) (drill 0.99822) (layers F&B.Cu F.Paste F.SilkS F.Mask))
  (pad P$2 thru_hole circle (at -17.78 0) (size 1.50622 1.50622) (drill 0.99822) (layers F&B.Cu F.Paste F.SilkS F.Mask))
  (pad P$3 thru_hole circle (at -15.24 0) (size 1.50622 1.50622) (drill 0.99822) (layers F&B.Cu F.Paste F.SilkS F.Mask))
  (pad P$4 thru_hole circle (at -12.7 0) (size 1.50622 1.50622) (drill 0.99822) (layers F&B.Cu F.Paste F.SilkS F.Mask))
  (pad P$5 thru_hole circle (at -10.16 0) (size 1.50622 1.50622) (drill 0.99822) (layers F&B.Cu F.Paste F.SilkS F.Mask))
  (pad P$6 thru_hole circle (at -7.62 0) (size 1.50622 1.50622) (drill 0.99822) (layers F&B.Cu F.Paste F.SilkS F.Mask))
  (pad P$7 thru_hole circle (at -5.08 0) (size 1.50622 1.50622) (drill 0.99822) (layers F&B.Cu F.Paste F.SilkS F.Mask))
  (pad P$8 thru_hole circle (at -2.54 0) (size 1.50622 1.50622) (drill 0.99822) (layers F&B.Cu F.Paste F.SilkS F.Mask))
  (pad P$9 thru_hole circle (at 0 0) (size 1.50622 1.50622) (drill 0.99822) (layers F&B.Cu F.Paste F.SilkS F.Mask))
  (pad P$10 thru_hole circle (at 2.54 0) (size 1.50622 1.50622) (drill 0.99822) (layers F&B.Cu F.Paste F.SilkS F.Mask))
  (pad P$11 thru_hole circle (at 5.08 0) (size 1.50622 1.50622) (drill 0.99822) (layers F&B.Cu F.Paste F.SilkS F.Mask))
  (pad P$12 thru_hole circle (at 7.62 0) (size 1.50622 1.50622) (drill 0.99822) (layers F&B.Cu F.Paste F.SilkS F.Mask))
  (pad P$13 thru_hole circle (at 10.16 0) (size 1.50622 1.50622) (drill 0.99822) (layers F&B.Cu F.Paste F.SilkS F.Mask))
  (pad P$14 thru_hole circle (at 12.7 0) (size 1.50622 1.50622) (drill 0.99822) (layers F&B.Cu F.Paste F.SilkS F.Mask))
  (pad P$15 thru_hole circle (at 15.24 0) (size 1.50622 1.50622) (drill 0.99822) (layers F&B.Cu F.Paste F.SilkS F.Mask))
  (pad P$16 thru_hole circle (at 17.78 0) (size 1.50622 1.50622) (drill 0.99822) (layers F&B.Cu F.Paste F.SilkS F.Mask))
  (pad P$17 thru_hole circle (at 20.32 0) (size 1.50622 1.50622) (drill 0.99822) (layers F&B.Cu F.Paste F.SilkS F.Mask))
)
